lab7/simulation/qsim/lab7.msim.vcd
$comment
	File created using the following command:
		vcd file lab7.msim.vcd -direction
$end
$date
	Mon Apr 15 10:07:01 2019
$end
$version
	ModelSim Version 10.5b
$end
$timescale
	1ps
$end

$scope module lab7_vlg_vec_tst $end
$var reg 1 ! C0 $end
$var reg 1 " x0 $end
$var reg 1 # x1 $end
$var reg 1 $ x2 $end
$var reg 1 % x3 $end
$var reg 1 & y0 $end
$var reg 1 ' y1 $end
$var reg 1 ( y2 $end
$var reg 1 ) y3 $end
$var wire 1 * C3 $end
$var wire 1 + S0 $end
$var wire 1 , S1 $end
$var wire 1 - S2 $end
$var wire 1 . S3 $end
$var wire 1 / S4 $end

$scope module i1 $end
$var wire 1 0 gnd $end
$var wire 1 1 vcc $end
$var wire 1 2 unknown $end
$var tri1 1 3 devclrn $end
$var tri1 1 4 devpor $end
$var tri1 1 5 devoe $end
$var wire 1 6 C0~combout $end
$var wire 1 7 x0~combout $end
$var wire 1 8 y0~combout $end
$var wire 1 9 inst|inst111~combout $end
$var wire 1 : x1~combout $end
$var wire 1 ; y1~combout $end
$var wire 1 < inst1|inst5~combout $end
$var wire 1 = inst1|inst111~combout $end
$var wire 1 > x2~combout $end
$var wire 1 ? y2~combout $end
$var wire 1 @ inst21~0_combout $end
$var wire 1 A inst122~0_combout $end
$var wire 1 B inst22~combout $end
$var wire 1 C inst2|inst111~combout $end
$var wire 1 D y3~combout $end
$var wire 1 E x3~combout $end
$var wire 1 F inst3|inst5~combout $end
$var wire 1 G inst2|inst5~combout $end
$var wire 1 H inst25~0_combout $end
$var wire 1 I inst131~0_combout $end
$var wire 1 J inst2|inst~0_combout $end
$var wire 1 K inst3|inst111~combout $end
$var wire 1 L inst25~1_combout $end
$var wire 1 M inst25~2_combout $end
$upscope $end
$upscope $end
$enddefinitions $end
#0
$dumpvars
0!
0"
0#
0$
0%
0&
0'
0(
0)
0*
0+
0,
0-
0.
0/
00
11
x2
13
14
15
06
07
08
09
0:
0;
0<
0=
0>
0?
0@
0A
0B
0C
0D
0E
0F
0G
0H
0I
0J
0K
0L
0M
$end
#2000
1"
17
19
1+
#4000
1#
0"
1:
07
1<
09
1=
0+
1,
#6000
1"
17
19
1+
#8000
1$
0#
0"
1>
0:
07
1G
1C
0<
09
0=
1-
0+
0,
#10000
1"
17
19
1+
#12000
1#
0"
1:
07
1<
09
1=
0+
1,
#14000
1"
17
19
1+
#16000
1%
0$
0#
0"
1E
0>
0:
07
1F
0G
0C
0<
09
1K
0=
0-
0+
1.
0,
#18000
1"
17
19
1+
#20000
1#
0"
1:
07
1<
09
1=
0+
1,
#22000
1"
17
19
1+
#24000
1$
0#
0"
1>
0:
07
1G
1C
0<
09
0=
1-
0+
0,
#26000
1"
17
19
1+
#28000
1#
0"
1:
07
1<
09
1=
0+
1,
#30000
1"
17
19
1+
#32000
1&
0%
0$
0#
0"
18
0E
0>
0:
07
0F
0G
0C
0<
0K
0=
0-
0.
0,
#34000
1"
17
1@
1=
09
1,
0+
#36000
1#
0"
1:
07
1B
1<
0@
0=
19
1C
1=
0B
0,
1+
0C
1-
1,
0-
#38000
1"
17
1@
0=
09
1B
0,
0+
1C
1-
#40000
1$
0#
0"
1>
0:
07
1G
0C
0B
0<
0@
1=
19
1C
0=
0-
1,
1+
1-
0,
#42000
1"
17
1@
1=
09
1,
0+
#44000
1#
0"
1:
07
1B
1<
0@
0=
19
0C
1=
0B
0,
1+
1C
0-
1,
1-
#46000
1"
17
1@
0=
09
1H
1B
0,
0+
1K
0C
1.
0-
#48000
1%
0$
0#
0"
1E
0>
0:
07
1F
0G
1C
0B
0<
0@
1=
19
1M
0K
0H
0C
0=
1-
1,
1+
0M
1K
1/
1*
0.
0-
0,
0/
0*
1.
#50000
1"
17
1@
1=
09
1,
0+
#52000
1#
0"
1:
07
1B
1<
0@
0=
19
1C
1=
0B
0,
1+
0C
1-
1,
0-
#54000
1"
17
1@
0=
09
1B
0,
0+
1C
1-
#56000
1$
0#
0"
1>
0:
07
1G
0C
0B
0<
0@
1=
19
1C
0=
0-
1,
1+
1-
0,
#58000
1"
17
1@
1=
09
1,
0+
#60000
1#
0"
1:
07
1B
1<
0@
0=
19
0C
1=
0B
0,
1+
1C
0-
1,
1-
#62000
1"
17
1@
0=
09
1H
1B
0,
0+
1M
0K
0C
1/
1*
0.
0-
#64000
1'
0&
0%
0$
0#
0"
1;
08
0E
0>
0:
07
0@
1=
0F
0G
1C
0H
0B
0M
1K
1,
1-
0K
0C
0/
0*
1.
0.
0-
#66000
1"
17
19
1+
#68000
1#
0"
1:
07
1B
0<
09
1C
0=
0+
1-
0,
#70000
1"
17
19
1+
#72000
1$
0#
0"
1>
0:
07
1G
0C
0B
1<
09
1C
1=
0-
0+
1-
1,
#74000
1"
17
19
1+
#76000
1#
0"
1:
07
1I
1B
0<
09
1K
0C
0=
0+
1.
0-
0,
#78000
1"
17
19
1+
#80000
1%
0$
0#
0"
1E
0>
0:
07
1F
0I
0G
1C
0B
1<
09
0C
1=
1-
0+
0-
1,
#82000
1"
17
19
1+
#84000
1#
0"
1:
07
1B
0<
09
1C
0=
0+
1-
0,
#86000
1"
17
19
1+
#88000
1$
0#
0"
1>
0:
07
1G
0C
0B
1<
09
1C
1=
0-
0+
1-
1,
#90000
1"
17
19
1+
#92000
1#
0"
1:
07
1I
1B
0<
09
1M
0K
0C
0=
0+
1/
1*
0.
0-
0,
#94000
1"
17
19
1+
#96000
1&
0%
0$
0#
0"
18
0E
0>
0:
07
0F
0I
0G
1C
0B
1<
0M
0C
1=
1-
0/
0*
0-
1,
#98000
1"
17
1@
0=
09
1B
0,
0+
1C
1-
#100000
1#
0"
1:
07
0<
0@
1=
19
0=
1,
1+
0,
#102000
1"
17
1@
1=
09
1,
0+
#104000
1$
0#
0"
1>
0:
07
1G
0C
1<
0@
0=
19
1=
0B
0-
0,
1+
1C
1,
1-
#106000
1"
17
1@
0=
09
1H
1B
0,
0+
1K
0C
1.
0-
#108000
1#
0"
1:
07
1I
0<
0@
1=
19
0H
0=
1,
1+
0,
#110000
1"
17
1@
1=
09
1,
0+
#112000
1%
0$
0#
0"
1E
0>
0:
07
1F
0I
0G
1C
1<
0@
0=
19
1=
0B
1-
0,
1+
0C
1,
0-
#114000
1"
17
1@
0=
09
1B
0,
0+
1C
1-
#116000
1#
0"
1:
07
0<
0@
1=
19
0=
1,
1+
0,
#118000
1"
17
1@
1=
09
1,
0+
#120000
1$
0#
0"
1>
0:
07
1G
0C
1<
0@
0=
19
1=
0B
0-
0,
1+
1C
1,
1-
#122000
1"
17
1@
0=
09
1H
1B
0,
0+
1M
0K
0C
1/
1*
0.
0-
#124000
1#
0"
1:
07
1I
0<
0@
1=
19
0H
0=
1,
1+
0,
#126000
1"
17
1@
1=
09
1,
0+
#128000
1(
0'
0&
0%
0$
0#
0"
1?
0;
08
0E
0>
0:
07
0I
0B
0@
0=
0F
0M
1C
0,
0/
0*
1-
#130000
1"
17
19
1+
#132000
1#
0"
1:
07
1<
09
1=
0+
1,
#134000
1"
17
19
1+
#136000
1$
0#
0"
1>
0:
07
1J
0G
0C
0<
09
1K
0=
0-
0+
1.
0,
#138000
1"
17
19
1+
#140000
1#
0"
1:
07
1<
09
1=
0+
1,
#142000
1"
17
19
1+
#144000
1%
0$
0#
0"
1E
0>
0:
07
1F
0J
1G
1C
0<
09
0=
1-
0+
0,
#146000
1"
17
19
1+
#148000
1#
0"
1:
07
1<
09
1=
0+
1,
#150000
1"
17
19
1+
#152000
1$
0#
0"
1>
0:
07
1L
1J
0G
0C
0<
09
1M
0K
0=
0-
0+
1/
1*
0.
0,
#154000
1"
17
19
1+
#156000
1#
0"
1:
07
1<
09
1=
0+
1,
#158000
1"
17
19
1+
#160000
1&
0%
0$
0#
0"
18
0E
0>
0:
07
0L
0F
0J
1G
1C
0<
0M
0=
1-
0/
0*
0,
#162000
1"
17
1@
1=
09
1,
0+
#164000
1#
0"
1:
07
1B
1<
0@
0=
19
0C
1=
0B
0,
1+
1C
0-
1,
1-
#166000
1"
17
1@
0=
09
1H
1B
0,
0+
1K
0C
1.
0-
#168000
1$
0#
0"
1>
0:
07
1J
0G
1C
0B
0<
0@
1=
19
0H
0C
0=
1-
1,
1+
0-
0,
#170000
1"
17
1@
1=
09
1,
0+
#172000
1#
0"
1:
07
1B
1<
0@
0=
19
1C
1=
0B
0,
1+
0C
1-
1,
0-
#174000
1"
17
1@
0=
09
1B
0,
0+
1C
1-
#176000
1%
0$
0#
0"
1E
0>
0:
07
1F
0J
1G
0C
0B
0<
0@
1=
19
1C
0=
0-
1,
1+
1-
0,
#178000
1"
17
1@
1=
09
1,
0+
#180000
1#
0"
1:
07
1B
1<
0@
0=
19
0C
1=
0B
0,
1+
1C
0-
1,
1-
#182000
1"
17
1@
0=
09
1H
1B
0,
0+
1M
0K
0C
1/
1*
0.
0-
#184000
1$
0#
0"
1>
0:
07
1L
1J
0G
1C
0B
0<
0@
1=
19
0H
0C
0=
1-
1,
1+
0-
0,
#186000
1"
17
1@
1=
09
1,
0+
#188000
1#
0"
1:
07
1B
1<
0@
0=
19
1C
1=
0B
0,
1+
0C
1-
1,
0-
#190000
1"
17
1@
0=
09
1B
0,
0+
1C
1-
#192000
1'
0&
0%
0$
0#
0"
1;
08
0E
0>
0:
07
0@
1=
0L
0F
0J
1G
0C
0B
0M
1,
0-
1C
0/
0*
1-
#194000
1"
17
19
1+
#196000
1#
0"
1:
07
1I
1B
0<
09
1K
0C
0=
0+
1.
0-
0,
#198000
1"
17
19
1+
#200000
1$
0#
0"
1>
0:
07
1J
0I
0G
1C
0B
1<
09
0C
1=
1-
0+
0-
1,
#202000
1"
17
19
1+
#204000
1#
0"
1:
07
1B
0<
09
1C
0=
0+
1-
0,
#206000
1"
17
19
1+
#208000
1%
0$
0#
0"
1E
0>
0:
07
1F
0J
1G
0C
0B
1<
09
1C
1=
0-
0+
1-
1,
#210000
1"
17
19
1+
#212000
1#
0"
1:
07
1I
1B
0<
09
1M
0K
0C
0=
0+
1/
1*
0.
0-
0,
#214000
1"
17
19
1+
#216000
1$
0#
0"
1>
0:
07
1L
1J
0I
0G
1C
0B
1<
09
0C
1=
1-
0+
0-
1,
#218000
1"
17
19
1+
#220000
1#
0"
1:
07
1B
0<
09
1C
0=
0+
1-
0,
#222000
1"
17
19
1+
#224000
1&
0%
0$
0#
0"
18
0E
0>
0:
07
0L
0F
0J
1G
0C
0B
1<
0M
1C
1=
0-
0/
0*
1-
1,
#226000
1"
17
1@
0=
09
1H
1B
0,
0+
1K
0C
1.
0-
#228000
1#
0"
1:
07
1I
0<
0@
1=
19
0H
0=
1,
1+
0,
#230000
1"
17
1@
1=
09
1,
0+
#232000
1$
0#
0"
1>
0:
07
1J
0I
0G
1C
1<
0@
0=
19
1=
0B
1-
0,
1+
0C
1,
0-
#234000
1"
17
1@
0=
09
1B
0,
0+
1C
1-
#236000
1#
0"
1:
07
0<
0@
1=
19
0=
1,
1+
0,
#238000
1"
17
1@
1=
09
1,
0+
#240000
1%
0$
0#
0"
1E
0>
0:
07
1F
0J
1G
0C
1<
0@
0=
19
1=
0B
0-
0,
1+
1C
1,
1-
#242000
1"
17
1@
0=
09
1H
1B
0,
0+
1M
0K
0C
1/
1*
0.
0-
#244000
1#
0"
1:
07
1I
0<
0@
1=
19
0H
0=
1,
1+
0,
#246000
1"
17
1@
1=
09
1,
0+
#248000
1$
0#
0"
1>
0:
07
1L
1J
0I
0G
1C
1<
0@
0=
19
1=
0B
1-
0,
1+
0C
1,
0-
#250000
1"
17
1@
0=
09
1B
0,
0+
1C
1-
#252000
1#
0"
1:
07
0<
0@
1=
19
0=
1,
1+
0,
#254000
1"
17
1@
1=
09
1,
0+
#256000
1)
0(
0'
0&
0%
0$
0#
0"
1D
0?
0;
08
0E
0>
0:
07
0L
0J
0B
0@
0=
0M
1K
0C
0,
0/
0*
1.
0-
#258000
1"
17
19
1+
#260000
1#
0"
1:
07
1<
09
1=
0+
1,
#262000
1"
17
19
1+
#264000
1$
0#
0"
1>
0:
07
1G
1C
0<
09
0=
1-
0+
0,
#266000
1"
17
19
1+
#268000
1#
0"
1:
07
1<
09
1=
0+
1,
#270000
1"
17
19
1+
#272000
1%
0$
0#
0"
1E
0>
0:
07
1L
0F
0G
0C
0<
09
1M
0K
0=
0-
0+
1/
1*
0.
0,
#274000
1"
17
19
1+
#276000
1#
0"
1:
07
1<
09
1=
0+
1,
#278000
1"
17
19
1+
#280000
1$
0#
0"
1>
0:
07
1G
1C
0<
09
0=
1-
0+
0,
#282000
1"
17
19
1+
#284000
1#
0"
1:
07
1<
09
1=
0+
1,
#286000
1"
17
19
1+
#288000
1&
0%
0$
0#
0"
18
0E
0>
0:
07
0L
1F
0G
0C
0<
0M
1K
0=
0-
0/
0*
1.
0,
#290000
1"
17
1@
1=
09
1,
0+
#292000
1#
0"
1:
07
1B
1<
0@
0=
19
1C
1=
0B
0,
1+
0C
1-
1,
0-
#294000
1"
17
1@
0=
09
1B
0,
0+
1C
1-
#296000
1$
0#
0"
1>
0:
07
1G
0C
0B
0<
0@
1=
19
1C
0=
0-
1,
1+
1-
0,
#298000
1"
17
1@
1=
09
1,
0+
#300000
1#
0"
1:
07
1B
1<
0@
0=
19
0C
1=
0B
0,
1+
1C
0-
1,
1-
#302000
1"
17
1@
0=
09
1H
1B
0,
0+
1M
0K
0C
1/
1*
0.
0-
#304000
1%
0$
0#
0"
1E
0>
0:
07
1L
0F
0G
1C
0B
0<
0@
1=
19
1K
0H
0C
0=
1-
1,
1+
0K
1.
0-
0,
0.
#306000
1"
17
1@
1=
09
1,
0+
#308000
1#
0"
1:
07
1B
1<
0@
0=
19
1C
1=
0B
0,
1+
0C
1-
1,
0-
#310000
1"
17
1@
0=
09
1B
0,
0+
1C
1-
#312000
1$
0#
0"
1>
0:
07
1G
0C
0B
0<
0@
1=
19
1C
0=
0-
1,
1+
1-
0,
#314000
1"
17
1@
1=
09
1,
0+
#316000
1#
0"
1:
07
1B
1<
0@
0=
19
0C
1=
0B
0,
1+
1C
0-
1,
1-
#318000
1"
17
1@
0=
09
1H
1B
0,
0+
1K
0C
1.
0-
#320000
1'
0&
0%
0$
0#
0"
1;
08
0E
0>
0:
07
0@
1=
0L
1F
0G
1C
0H
0B
0K
1,
1-
0M
1K
0C
0.
0/
0*
1.
0-
#322000
1"
17
19
1+
#324000
1#
0"
1:
07
1B
0<
09
1C
0=
0+
1-
0,
#326000
1"
17
19
1+
#328000
1$
0#
0"
1>
0:
07
1G
0C
0B
1<
09
1C
1=
0-
0+
1-
1,
#330000
1"
17
19
1+
#332000
1#
0"
1:
07
1I
1B
0<
09
1M
0K
0C
0=
0+
1/
1*
0.
0-
0,
#334000
1"
17
19
1+
#336000
1%
0$
0#
0"
1E
0>
0:
07
1L
0F
0I
0G
1C
0B
1<
09
0C
1=
1-
0+
0-
1,
#338000
1"
17
19
1+
#340000
1#
0"
1:
07
1B
0<
09
1C
0=
0+
1-
0,
#342000
1"
17
19
1+
#344000
1$
0#
0"
1>
0:
07
1G
0C
0B
1<
09
1C
1=
0-
0+
1-
1,
#346000
1"
17
19
1+
#348000
1#
0"
1:
07
1I
1B
0<
09
1K
0C
0=
0+
1.
0-
0,
#350000
1"
17
19
1+
#352000
1&
0%
0$
0#
0"
18
0E
0>
0:
07
0L
1F
0I
0G
1C
0B
1<
0M
0C
1=
1-
0/
0*
0-
1,
#354000
1"
17
1@
0=
09
1B
0,
0+
1C
1-
#356000
1#
0"
1:
07
0<
0@
1=
19
0=
1,
1+
0,
#358000
1"
17
1@
1=
09
1,
0+
#360000
1$
0#
0"
1>
0:
07
1G
0C
1<
0@
0=
19
1=
0B
0-
0,
1+
1C
1,
1-
#362000
1"
17
1@
0=
09
1H
1B
0,
0+
1M
0K
0C
1/
1*
0.
0-
#364000
1#
0"
1:
07
1I
0<
0@
1=
19
0H
0=
1,
1+
0,
#366000
1"
17
1@
1=
09
1,
0+
#368000
1%
0$
0#
0"
1E
0>
0:
07
1L
0F
0I
0G
1C
1<
0@
0=
19
1=
0B
1-
0,
1+
0C
1,
0-
#370000
1"
17
1@
0=
09
1B
0,
0+
1C
1-
#372000
1#
0"
1:
07
0<
0@
1=
19
0=
1,
1+
0,
#374000
1"
17
1@
1=
09
1,
0+
#376000
1$
0#
0"
1>
0:
07
1G
0C
1<
0@
0=
19
1=
0B
0-
0,
1+
1C
1,
1-
#378000
1"
17
1@
0=
09
1H
1B
0,
0+
1K
0C
1.
0-
#380000
1#
0"
1:
07
1I
0<
0@
1=
19
0H
0=
1,
1+
0,
#382000
1"
17
1@
1=
09
1,
0+
#384000
1(
0'
0&
0%
0$
0#
0"
1?
0;
08
0E
0>
0:
07
0L
0I
0B
0@
0=
1F
0M
1C
0,
0/
0*
1-
#386000
1"
17
19
1+
#388000
1#
0"
1:
07
1<
09
1=
0+
1,
#390000
1"
17
19
1+
#392000
1$
0#
0"
1>
0:
07
1L
1J
0G
0C
0<
09
1M
0K
0=
0-
0+
1/
1*
0.
0,
#394000
1"
17
19
1+
#396000
1#
0"
1:
07
1<
09
1=
0+
1,
#398000
1"
17
19
1+
#400000
1%
0$
0#
0"
1E
0>
0:
07
0F
0J
1G
1C
0<
09
0=
1-
0+
0,
#402000
1"
17
19
1+
#404000
1#
0"
1:
07
1<
09
1=
0+
1,
#406000
1"
17
19
1+
#408000
1$
0#
0"
1>
0:
07
1J
0G
0C
0<
09
1K
0=
0-
0+
1.
0,
#410000
1"
17
19
1+
#412000
1#
0"
1:
07
1<
09
1=
0+
1,
#414000
1"
17
19
1+
#416000
1&
0%
0$
0#
0"
18
0E
0>
0:
07
0L
1F
0J
1G
1C
0<
0M
0=
1-
0/
0*
0,
#418000
1"
17
1@
1=
09
1,
0+
#420000
1#
0"
1:
07
1B
1<
0@
0=
19
0C
1=
0B
0,
1+
1C
0-
1,
1-
#422000
1"
17
1@
0=
09
1H
1B
0,
0+
1M
0K
0C
1/
1*
0.
0-
#424000
1$
0#
0"
1>
0:
07
1L
1J
0G
1C
0B
0<
0@
1=
19
0H
0C
0=
1-
1,
1+
0-
0,
#426000
1"
17
1@
1=
09
1,
0+
#428000
1#
0"
1:
07
1B
1<
0@
0=
19
1C
1=
0B
0,
1+
0C
1-
1,
0-
#430000
1"
17
1@
0=
09
1B
0,
0+
1C
1-
#432000
1%
0$
0#
0"
1E
0>
0:
07
0F
0J
1G
0C
0B
0<
0@
1=
19
1C
0=
0-
1,
1+
1-
0,
#434000
1"
17
1@
1=
09
1,
0+
#436000
1#
0"
1:
07
1B
1<
0@
0=
19
0C
1=
0B
0,
1+
1C
0-
1,
1-
#438000
1"
17
1@
0=
09
1H
1B
0,
0+
1K
0C
1.
0-
#440000
1$
0#
0"
1>
0:
07
1J
0G
1C
0B
0<
0@
1=
19
0H
0C
0=
1-
1,
1+
0-
0,
#442000
1"
17
1@
1=
09
1,
0+
#444000
1#
0"
1:
07
1B
1<
0@
0=
19
1C
1=
0B
0,
1+
0C
1-
1,
0-
#446000
1"
17
1@
0=
09
1B
0,
0+
1C
1-
#448000
1'
0&
0%
0$
0#
0"
1;
08
0E
0>
0:
07
0@
1=
0L
1F
0J
1G
0C
0B
0M
1,
0-
1C
0/
0*
1-
#450000
1"
17
19
1+
#452000
1#
0"
1:
07
1I
1B
0<
09
1M
0K
0C
0=
0+
1/
1*
0.
0-
0,
#454000
1"
17
19
1+
#456000
1$
0#
0"
1>
0:
07
1L
1J
0I
0G
1C
0B
1<
09
0C
1=
1-
0+
0-
1,
#458000
1"
17
19
1+
#460000
1#
0"
1:
07
1B
0<
09
1C
0=
0+
1-
0,
#462000
1"
17
19
1+
#464000
1%
0$
0#
0"
1E
0>
0:
07
0F
0J
1G
0C
0B
1<
09
1C
1=
0-
0+
1-
1,
#466000
1"
17
19
1+
#468000
1#
0"
1:
07
1I
1B
0<
09
1K
0C
0=
0+
1.
0-
0,
#470000
1"
17
19
1+
#472000
1$
0#
0"
1>
0:
07
1J
0I
0G
1C
0B
1<
09
0C
1=
1-
0+
0-
1,
#474000
1"
17
19
1+
#476000
1#
0"
1:
07
1B
0<
09
1C
0=
0+
1-
0,
#478000
1"
17
19
1+
#480000
1&
0%
0$
0#
0"
18
0E
0>
0:
07
0L
1F
0J
1G
0C
0B
1<
0M
1C
1=
0-
0/
0*
1-
1,
#482000
1"
17
1@
0=
09
1H
1B
0,
0+
1M
0K
0C
1/
1*
0.
0-
#484000
1#
0"
1:
07
1I
0<
0@
1=
19
0H
0=
1,
1+
0,
#486000
1"
17
1@
1=
09
1,
0+
#488000
1$
0#
0"
1>
0:
07
1L
1J
0I
0G
1C
1<
0@
0=
19
1=
0B
1-
0,
1+
0C
1,
0-
#490000
1"
17
1@
0=
09
1B
0,
0+
1C
1-
#492000
1#
0"
1:
07
0<
0@
1=
19
0=
1,
1+
0,
#494000
1"
17
1@
1=
09
1,
0+
#496000
1%
0$
0#
0"
1E
0>
0:
07
0F
0J
1G
0C
1<
0@
0=
19
1=
0B
0-
0,
1+
1C
1,
1-
#498000
1"
17
1@
0=
09
1H
1B
0,
0+
1K
0C
1.
0-
#500000
1#
0"
1:
07
1I
0<
0@
1=
19
0H
0=
1,
1+
0,
#502000
1"
17
1@
1=
09
1,
0+
#504000
1$
0#
0"
1>
0:
07
1J
0I
0G
1C
1<
0@
0=
19
1=
0B
1-
0,
1+
0C
1,
0-
#506000
1"
17
1@
0=
09
1B
0,
0+
1C
1-
#508000
1#
0"
1:
07
0<
0@
1=
19
0=
1,
1+
0,
#510000
1"
17
1@
1=
09
1,
0+
#512000
1!
0)
0(
0'
0&
0%
0$
0#
0"
16
0D
0?
0;
08
0E
0>
0:
07
0=
19
0L
0J
0B
0@
0M
0K
0C
0,
1+
0/
0*
0.
0-
#514000
1"
17
1A
1=
09
1,
0+
#516000
1#
0"
1:
07
1B
1<
0A
0=
19
1C
1=
0B
0,
1+
0C
1-
1,
0-
#518000
1"
17
1A
0=
09
1B
0,
0+
1C
1-
#520000
1$
0#
0"
1>
0:
07
1G
0C
0B
0<
0A
1=
19
1C
0=
0-
1,
1+
1-
0,
#522000
1"
17
1A
1=
09
1,
0+
#524000
1#
0"
1:
07
1B
1<
0A
0=
19
0C
1=
0B
0,
1+
1C
0-
1,
1-
#526000
1"
17
1A
0=
09
1H
1B
0,
0+
1K
0C
1.
0-
#528000
1%
0$
0#
0"
1E
0>
0:
07
1F
0G
1C
0B
0<
0A
1=
19
1M
0K
0H
0C
0=
1-
1,
1+
0M
1K
1/
1*
0.
0-
0,
0/
0*
1.
#530000
1"
17
1A
1=
09
1,
0+
#532000
1#
0"
1:
07
1B
1<
0A
0=
19
1C
1=
0B
0,
1+
0C
1-
1,
0-
#534000
1"
17
1A
0=
09
1B
0,
0+
1C
1-
#536000
1$
0#
0"
1>
0:
07
1G
0C
0B
0<
0A
1=
19
1C
0=
0-
1,
1+
1-
0,
#538000
1"
17
1A
1=
09
1,
0+
#540000
1#
0"
1:
07
1B
1<
0A
0=
19
0C
1=
0B
0,
1+
1C
0-
1,
1-
#542000
1"
17
1A
0=
09
1H
1B
0,
0+
1M
0K
0C
1/
1*
0.
0-
#544000
1&
0%
0$
0#
0"
18
0E
0>
0:
07
0F
0G
1C
0B
0<
0M
1K
0H
0C
1=
1-
0K
0/
0*
1.
0-
1,
0.
#546000
1"
17
0A
1@
19
1+
#548000
1#
0"
1:
07
1B
1<
1A
0@
09
1C
0=
0+
1-
0,
#550000
1"
17
0A
1@
19
1+
#552000
1$
0#
0"
1>
0:
07
1G
0C
0B
0<
1A
0@
09
1C
1=
0-
0+
1-
1,
#554000
1"
17
0A
1@
19
1+
#556000
1#
0"
1:
07
1B
1<
1A
0@
09
0C
1H
0=
0+
1K
0-
0,
1.
#558000
1"
17
0A
1@
19
1+
#560000
1%
0$
0#
0"
1E
0>
0:
07
1F
0G
1C
0B
0<
1A
0@
09
1M
0K
0H
0C
1=
1-
0+
0M
1K
1/
1*
0.
0-
1,
0/
0*
1.
#562000
1"
17
0A
1@
19
1+
#564000
1#
0"
1:
07
1B
1<
1A
0@
09
1C
0=
0+
1-
0,
#566000
1"
17
0A
1@
19
1+
#568000
1$
0#
0"
1>
0:
07
1G
0C
0B
0<
1A
0@
09
1C
1=
0-
0+
1-
1,
#570000
1"
17
0A
1@
19
1+
#572000
1#
0"
1:
07
1B
1<
1A
0@
09
0C
1H
0=
0+
1M
0K
0-
0,
1/
1*
0.
#574000
1"
17
0A
1@
19
1+
#576000
1'
0&
0%
0$
0#
0"
1;
08
0E
0>
0:
07
0@
1=
0F
0G
1C
0H
0B
0M
1K
1,
1-
0K
0C
0/
0*
1.
0.
0-
#578000
1"
17
1A
0=
09
1B
0,
0+
1C
1-
#580000
1#
0"
1:
07
0<
0A
1=
19
0=
1,
1+
0,
#582000
1"
17
1A
1=
09
1,
0+
#584000
1$
0#
0"
1>
0:
07
1G
0C
1<
0A
0=
19
1=
0B
0-
0,
1+
1C
1,
1-
#586000
1"
17
1A
0=
09
1H
1B
0,
0+
1K
0C
1.
0-
#588000
1#
0"
1:
07
1I
0<
0A
1=
19
0H
0=
1,
1+
0,
#590000
1"
17
1A
1=
09
1,
0+
#592000
1%
0$
0#
0"
1E
0>
0:
07
1F
0I
0G
1C
1<
0A
0=
19
1=
0B
1-
0,
1+
0C
1,
0-
#594000
1"
17
1A
0=
09
1B
0,
0+
1C
1-
#596000
1#
0"
1:
07
0<
0A
1=
19
0=
1,
1+
0,
#598000
1"
17
1A
1=
09
1,
0+
#600000
1$
0#
0"
1>
0:
07
1G
0C
1<
0A
0=
19
1=
0B
0-
0,
1+
1C
1,
1-
#602000
1"
17
1A
0=
09
1H
1B
0,
0+
1M
0K
0C
1/
1*
0.
0-
#604000
1#
0"
1:
07
1I
0<
0A
1=
19
0H
0=
1,
1+
0,
#606000
1"
17
1A
1=
09
1,
0+
#608000
1&
0%
0$
0#
0"
18
0E
0>
0:
07
0F
0I
0G
1C
1<
0M
0=
1-
0/
0*
0,
#610000
1"
17
0A
1@
19
1+
#612000
1#
0"
1:
07
0<
1A
0@
09
1=
0+
1,
#614000
1"
17
0A
1@
19
1+
#616000
1$
0#
0"
1>
0:
07
1G
0C
1<
1A
0@
09
1H
0=
0-
0+
1K
0,
1.
#618000
1"
17
0A
1@
19
1+
#620000
1#
0"
1:
07
1I
0<
1A
0@
09
0H
1=
0+
1,
#622000
1"
17
0A
1@
19
1+
#624000
1%
0$
0#
0"
1E
0>
0:
07
1F
0I
0G
1C
1<
1A
0@
09
0=
1-
0+
0,
#626000
1"
17
0A
1@
19
1+
#628000
1#
0"
1:
07
0<
1A
0@
09
1=
0+
1,
#630000
1"
17
0A
1@
19
1+
#632000
1$
0#
0"
1>
0:
07
1G
0C
1<
1A
0@
09
1H
0=
0-
0+
1M
0K
0,
1/
1*
0.
#634000
1"
17
0A
1@
19
1+
#636000
1#
0"
1:
07
1I
0<
1A
0@
09
0H
1=
0+
1,
#638000
1"
17
0A
1@
19
1+
#640000
1(
0'
0&
0%
0$
0#
0"
1?
0;
08
0E
0>
0:
07
0I
0B
0@
0=
0F
0M
1C
0,
0/
0*
1-
#642000
1"
17
1A
1=
09
1,
0+
#644000
1#
0"
1:
07
1B
1<
0A
0=
19
0C
1=
0B
0,
1+
1C
0-
1,
1-
#646000
1"
17
1A
0=
09
1H
1B
0,
0+
1K
0C
1.
0-
#648000
1$
0#
0"
1>
0:
07
1J
0G
1C
0B
0<
0A
1=
19
0H
0C
0=
1-
1,
1+
0-
0,
#650000
1"
17
1A
1=
09
1,
0+
#652000
1#
0"
1:
07
1B
1<
0A
0=
19
1C
1=
0B
0,
1+
0C
1-
1,
0-
#654000
1"
17
1A
0=
09
1B
0,
0+
1C
1-
#656000
1%
0$
0#
0"
1E
0>
0:
07
1F
0J
1G
0C
0B
0<
0A
1=
19
1C
0=
0-
1,
1+
1-
0,
#658000
1"
17
1A
1=
09
1,
0+
#660000
1#
0"
1:
07
1B
1<
0A
0=
19
0C
1=
0B
0,
1+
1C
0-
1,
1-
#662000
1"
17
1A
0=
09
1H
1B
0,
0+
1M
0K
0C
1/
1*
0.
0-
#664000
1$
0#
0"
1>
0:
07
1L
1J
0G
1C
0B
0<
0A
1=
19
0H
0C
0=
1-
1,
1+
0-
0,
#666000
1"
17
1A
1=
09
1,
0+
#668000
1#
0"
1:
07
1B
1<
0A
0=
19
1C
1=
0B
0,
1+
0C
1-
1,
0-
#670000
1"
17
1A
0=
09
1B
0,
0+
1C
1-
#672000
1&
0%
0$
0#
0"
18
0E
0>
0:
07
0L
0F
0J
1G
0C
0B
0<
0M
1C
1=
0-
0/
0*
1-
1,
#674000
1"
17
0A
1@
19
1+
#676000
1#
0"
1:
07
1B
1<
1A
0@
09
0C
1H
0=
0+
1K
0-
0,
1.
#678000
1"
17
0A
1@
19
1+
#680000
1$
0#
0"
1>
0:
07
1J
0G
1C
0B
0<
1A
0@
09
0H
0C
1=
1-
0+
0-
1,
#682000
1"
17
0A
1@
19
1+
#684000
1#
0"
1:
07
1B
1<
1A
0@
09
1C
0=
0+
1-
0,
#686000
1"
17
0A
1@
19
1+
#688000
1%
0$
0#
0"
1E
0>
0:
07
1F
0J
1G
0C
0B
0<
1A
0@
09
1C
1=
0-
0+
1-
1,
#690000
1"
17
0A
1@
19
1+
#692000
1#
0"
1:
07
1B
1<
1A
0@
09
0C
1H
0=
0+
1M
0K
0-
0,
1/
1*
0.
#694000
1"
17
0A
1@
19
1+
#696000
1$
0#
0"
1>
0:
07
1L
1J
0G
1C
0B
0<
1A
0@
09
0H
0C
1=
1-
0+
0-
1,
#698000
1"
17
0A
1@
19
1+
