lab8/simulation/qsim/lab8.msim.vcd
$comment
	File created using the following command:
		vcd file lab8.msim.vcd -direction
$end
$date
	Sat Apr 20 22:27:12 2019
$end
$version
	ModelSim Version 10.5b
$end
$timescale
	1ps
$end

$scope module lab8_vlg_vec_tst $end
$var reg 1 ! CLK $end
$var reg 1 " D $end
$var reg 1 # J $end
$var reg 1 $ K $end
$var reg 1 % NR $end
$var reg 1 & NS $end
$var reg 1 ' R $end
$var reg 1 ( S $end
$var reg 1 ) T $end
$var wire 1 * NQ1 $end
$var wire 1 + NQ2 $end
$var wire 1 , Q1 $end
$var wire 1 - Q2 $end
$var wire 1 . Q3 $end
$var wire 1 / Q4 $end
$var wire 1 0 Q5 $end

$scope module i1 $end
$var wire 1 1 gnd $end
$var wire 1 2 vcc $end
$var wire 1 3 unknown $end
$var tri1 1 4 devclrn $end
$var tri1 1 5 devpor $end
$var tri1 1 6 devoe $end
$var wire 1 7 CLK~combout $end
$var wire 1 8 D~combout $end
$var wire 1 9 inst4~regout $end
$var wire 1 : J~combout $end
$var wire 1 ; K~combout $end
$var wire 1 < inst5~regout $end
$var wire 1 = T~combout $end
$var wire 1 > inst7~regout $end
$var wire 1 ? S~combout $end
$var wire 1 @ R~combout $end
$var wire 1 A inst1~combout $end
$var wire 1 B NS~combout $end
$var wire 1 C NR~combout $end
$var wire 1 D inst2~combout $end
$var wire 1 E inst~combout $end
$var wire 1 F inst3~combout $end
$upscope $end
$upscope $end
$enddefinitions $end
#0
$dumpvars
0!
0"
0#
0$
1%
1&
0'
0(
0)
x*
x+
x,
x-
0.
0/
00
01
12
x3
14
15
16
07
08
09
0:
0;
0<
0=
0>
0?
0@
xA
1B
1C
xD
xE
xF
$end
#20000
1'
0%
1!
1#
1$
1@
0C
17
1:
1;
1A
0F
1D
0E
0-
1+
0,
1*
#40000
0!
07
#60000
1(
0&
0#
0$
1!
1?
0B
0:
0;
17
1E
0D
1-
0*
1<
1/
#80000
0!
07
#100000
1)
1!
1=
17
#120000
0!
07
#140000
1!
17
1>
10
#160000
0)
0!
0=
07
#180000
1#
1)
1!
1:
1=
17
#200000
0(
1&
0!
0?
1B
07
0E
1D
0-
1*
#220000
1!
17
0>
00
#240000
0!
07
#250000
1"
18
#260000
1!
17
1>
19
10
1.
#280000
0)
0!
0=
07
#300000
0'
1%
1!
0@
1C
17
#320000
0!
07
#340000
1!
17
#360000
1(
0&
0!
1?
0B
07
1E
0A
0D
1F
1-
1,
0*
0+
#380000
1!
17
#400000
1$
0!
1;
07
#420000
1)
1!
1=
17
0<
0/
#440000
0!
07
#460000
1'
0%
1!
1@
0C
17
1A
0F
1+
0,
0>
1<
00
1/
#480000
0!
07
#500000
0"
1!
08
17
09
1>
0<
0.
10
0/
#520000
0!
07
#540000
0#
1!
0:
17
0>
1<
00
1/
#560000
0!
07
#580000
0'
1%
1!
0@
1C
17
0A
1F
0+
1,
1>
0<
10
0/
#600000
0!
07
#620000
1!
17
0>
00
#640000
0$
1#
0!
0;
1:
07
#660000
0(
1&
1!
0?
1B
17
1>
1<
10
1/
#680000
0)
0!
0=
07
#700000
0#
1!
0:
17
#720000
0!
07
#740000
1'
0%
1!
1@
0C
17
1A
0F
1D
0E
0-
1+
0,
1*
#750000
1"
18
#760000
0!
07
#780000
1!
17
19
1.
#800000
1(
0&
0!
1?
0B
07
1E
0D
1-
0*
#820000
1$
1#
1!
1;
1:
17
#840000
1)
0!
1=
07
#860000
1!
17
0>
0<
00
0/
#880000
0!
07
#900000
1!
17
1>
1<
10
1/
#920000
0(
1&
0$
0#
0!
0?
1B
0;
0:
07
0E
1D
0-
1*
#940000
1!
17
0>
00
#960000
0'
1%
0!
0@
1C
07
#980000
1!
17
1>
10
