lab8/simulation/qsim/lab8.msim.vcd
$comment
	File created using the following command:
		vcd file lab8.msim.vcd -direction
$end
$date
	Sun Apr 21 15:19:05 2019
$end
$version
	ModelSim Version 10.5b
$end
$timescale
	1ps
$end

$scope module lab8_vlg_vec_tst $end
$var reg 1 ! CLK $end
$var reg 1 " D $end
$var reg 1 # J $end
$var reg 1 $ K $end
$var reg 1 % NR $end
$var reg 1 & NS $end
$var reg 1 ' R $end
$var reg 1 ( S $end
$var reg 1 ) T $end
$var wire 1 * NQ1 $end
$var wire 1 + NQ2 $end
$var wire 1 , Q1 $end
$var wire 1 - Q2 $end
$var wire 1 . Q3 $end
$var wire 1 / Q4 $end
$var wire 1 0 Q5 $end

$scope module i1 $end
$var wire 1 1 gnd $end
$var wire 1 2 vcc $end
$var wire 1 3 unknown $end
$var tri1 1 4 devclrn $end
$var tri1 1 5 devpor $end
$var tri1 1 6 devoe $end
$var wire 1 7 CLK~combout $end
$var wire 1 8 D~combout $end
$var wire 1 9 inst4~regout $end
$var wire 1 : J~combout $end
$var wire 1 ; K~combout $end
$var wire 1 < inst5~regout $end
$var wire 1 = T~combout $end
$var wire 1 > inst7~regout $end
$var wire 1 ? S~combout $end
$var wire 1 @ R~combout $end
$var wire 1 A inst1~combout $end
$var wire 1 B NS~combout $end
$var wire 1 C NR~combout $end
$var wire 1 D inst2~combout $end
$var wire 1 E inst~combout $end
$var wire 1 F inst3~combout $end
$upscope $end
$upscope $end
$enddefinitions $end
#0
$dumpvars
0!
0"
0#
0$
0%
0&
0'
0(
0)
x*
1+
x,
1-
0.
0/
00
01
12
x3
14
15
16
07
08
09
0:
0;
0<
0=
0>
0?
0@
xA
0B
0C
0D
xE
0F
$end
#10000
1!
17
#20000
1'
1&
1"
0!
1@
1B
18
07
1A
1D
0E
0-
0,
1*
#30000
1#
1$
1!
1:
1;
17
19
1.
#40000
0!
07
#50000
1!
17
1<
1/
#60000
1(
0&
0"
0#
0!
1?
0B
08
0:
07
1E
0D
1-
0*
#70000
1!
17
0<
09
0/
0.
#80000
0$
0!
0;
07
#90000
1!
17
#100000
1)
0!
1=
07
#110000
1!
17
1>
10
#120000
1"
1#
1$
0!
18
1:
1;
07
#130000
1!
17
0>
1<
19
00
1/
1.
#140000
0!
07
#150000
1!
17
1>
0<
10
0/
#160000
0)
0"
0!
0=
08
07
#170000
0$
1!
0;
17
1<
09
1/
0.
#180000
1)
0!
1=
07
#190000
0#
1!
0:
17
0>
00
#200000
0(
1&
0!
0?
1B
07
0E
1D
0-
1*
#210000
1"
1!
18
17
19
1>
1.
10
#220000
0!
07
#230000
1!
17
0>
00
#240000
0!
07
#250000
1#
0"
1!
1:
08
17
09
1>
0.
10
#260000
0!
07
#270000
1!
17
0>
00
#280000
0)
0!
0=
07
#290000
1!
17
#300000
1%
0'
0!
1C
0@
07
#310000
1"
1!
18
17
19
1.
#320000
0!
07
#330000
1!
17
#340000
0!
07
#350000
0"
1!
08
17
09
0.
#360000
1(
0&
0!
1?
0B
07
1E
0A
0D
1F
1-
1,
0*
0+
#370000
1!
17
#380000
0!
07
#390000
1!
17
#400000
1$
0!
1;
07
#410000
1!
17
0<
0/
#420000
1)
0!
1=
07
#430000
1"
1!
18
17
19
1>
1<
1.
10
1/
#440000
0!
07
#450000
0"
1!
08
17
09
0>
0<
0.
00
0/
#460000
0%
1'
0!
0C
1@
07
0F
1A
0,
1+
#470000
1!
17
1>
1<
10
1/
#480000
0!
07
#490000
1"
1!
18
17
19
0>
0<
1.
00
0/
#500000
0!
07
#510000
1!
17
1>
1<
10
1/
#520000
0!
07
#530000
1!
17
0>
0<
00
0/
#540000
0!
07
#550000
0"
1!
08
17
09
1>
1<
0.
10
1/
#560000
0#
0!
0:
07
#570000
1!
17
0>
0<
00
0/
#580000
1%
0'
0!
1C
0@
07
1F
0A
1,
0+
#590000
1!
17
1>
10
#600000
0!
07
#610000
1!
17
0>
00
#620000
0!
07
#630000
1!
17
1>
10
#640000
0$
1#
0!
0;
1:
07
#650000
1!
17
0>
1<
00
1/
#660000
0(
1&
0!
0?
1B
07
#670000
1!
17
1>
10
#680000
0)
0!
0=
07
#690000
1!
17
#700000
0#
0!
0:
07
#710000
1!
17
#720000
0!
07
#730000
1!
17
#740000
0%
1'
0!
0C
1@
07
0F
1D
1A
0E
0,
0-
1+
1*
#750000
1!
17
#760000
0!
07
#770000
1!
17
#780000
0!
07
#790000
1!
17
#800000
1(
0&
0!
1?
0B
07
1E
0D
1-
0*
#810000
1!
17
#820000
1$
1#
0!
1;
1:
07
#830000
1!
17
0<
0/
#840000
1)
0!
1=
07
#850000
1!
17
0>
1<
00
1/
#860000
0!
07
#870000
1!
17
1>
0<
10
0/
#880000
0!
07
#890000
1!
17
0>
1<
00
1/
#900000
0!
07
#910000
1!
17
1>
0<
10
0/
#920000
0(
1&
0$
0#
0!
0?
1B
0;
0:
07
0E
1D
0-
1*
#930000
1!
17
0>
00
#940000
0!
07
#950000
1!
17
1>
10
#960000
1%
0'
0!
1C
0@
07
#970000
1!
17
0>
00
#980000
0!
07
#990000
1!
17
1>
10
