lab9/simulation/qsim/lab9.msim.vcd
$comment
	File created using the following command:
		vcd file lab9.msim.vcd -direction
$end
$date
	Fri Apr 26 17:35:43 2019
$end
$version
	ModelSim Version 10.1d
$end
$timescale
	1ps
$end
$scope module lab9_vlg_vec_tst $end
$var reg 1 ! CLK $end
$var wire 1 " a1 $end
$var wire 1 # a2 $end
$var wire 1 $ b1 $end
$var wire 1 % b2 $end
$var wire 1 & c1 $end
$var wire 1 ' c2 $end
$var wire 1 ( d1 $end
$var wire 1 ) d2 $end
$var wire 1 * e1 $end
$var wire 1 + e2 $end
$var wire 1 , f1 $end
$var wire 1 - f2 $end
$var wire 1 . g1 $end
$var wire 1 / g2 $end
$var wire 1 0 Q11 $end
$var wire 1 1 Q12 $end
$var wire 1 2 Q13 $end
$var wire 1 3 Q14 $end
$var wire 1 4 Q21 $end
$var wire 1 5 Q22 $end
$var wire 1 6 Q23 $end
$var wire 1 7 Q24 $end
$var wire 1 8 sampler $end
$scope module i1 $end
$var wire 1 9 gnd $end
$var wire 1 : vcc $end
$var wire 1 ; unknown $end
$var tri1 1 < devclrn $end
$var tri1 1 = devpor $end
$var tri1 1 > devoe $end
$var wire 1 ? CLK~combout $end
$var wire 1 @ inst~regout $end
$var wire 1 A inst1~regout $end
$var wire 1 B inst2~regout $end
$var wire 1 C inst3~regout $end
$var wire 1 D sge0|WideOr0~0_combout $end
$var wire 1 E sge0|WideOr1~0_combout $end
$var wire 1 F sge0|WideOr2~0_combout $end
$var wire 1 G sge0|WideOr3~0_combout $end
$var wire 1 H sge0|WideOr4~0_combout $end
$var wire 1 I sge0|WideOr5~0_combout $end
$var wire 1 J sge0|WideOr6~0_combout $end
$var wire 1 K inst24~regout $end
$var wire 1 L inst23~regout $end
$var wire 1 M inst22~regout $end
$var wire 1 N inst21~regout $end
$var wire 1 O seg2|WideOr0~0_combout $end
$var wire 1 P seg2|WideOr1~0_combout $end
$var wire 1 Q seg2|WideOr2~0_combout $end
$var wire 1 R seg2|WideOr3~0_combout $end
$var wire 1 S seg2|WideOr4~0_combout $end
$var wire 1 T seg2|WideOr5~0_combout $end
$var wire 1 U seg2|WideOr6~0_combout $end
$upscope $end
$upscope $end
$enddefinitions $end
#0
$dumpvars
0!
x"
x#
x$
x%
x&
x'
x(
x)
x*
x+
x,
x-
x.
x/
x0
x1
x2
x3
x4
x5
x6
x7
x8
09
1:
x;
1<
1=
1>
x?
0@
0A
0B
0C
xD
xE
xF
xG
xH
xI
xJ
0K
0L
0M
0N
xO
xP
xQ
xR
xS
xT
xU
$end
#986
0?
#2843
0T
#3438
0E
#4596
0S
#4604
0O
#4606
0U
0R
#5144
04
#5146
01
#5443
0P
#5448
0Q
#6259
0F
#6480
07
#6482
06
#6883
02
#6949
00
#7090
05
#7731
0D
#7734
0G
#7735
0H
#7737
0I
#7800
0J
#8531
03
#10027
0-
#10315
0$
#10671
0"
#11238
0+
#11280
0)
#11373
0#
#12262
0%
#12265
0'
#13020
1/
#13519
0&
#14128
0(
#14140
0,
#14176
0*
#14729
1.
#15000
1!
08
#15986
1?
#27558
1@
1K
#30000
0!
18
#30399
1O
#30401
1T
#30402
1R
#30405
1S
#30986
0?
#32702
14
#34507
10
#35289
1D
#35292
1G
#35293
1H
#35295
1I
#37047
1+
#37076
1)
#37168
1#
#37585
1-
#38229
1"
#41686
1(
#41698
1,
#41734
1*
#45000
1!
08
#45986
1?
#57558
0@
1A
0K
#60000
0!
18
#60399
0O
#60401
0T
#60402
0R
#60405
0S
#60986
0?
#61003
0D
#61009
0G
#61011
1J
#61986
1L
#62702
04
#62704
11
#63188
1F
#63943
0"
#64507
00
#65293
0H
#66455
1Q
#66462
1T
#66463
1U
#67047
0+
#67076
0)
#67168
0#
#67403
0(
#67585
0-
#67940
0.
#69076
15
#70448
1&
#71734
0*
#73272
1'
#73646
1-
#74877
0/
#75000
1!
08
#75986
1?
#87558
1@
1K
#90000
0!
18
#90402
0Q
#90405
1S
#90986
0?
#92702
14
#94507
10
#94943
0F
#95293
1H
#97047
1+
#97219
0'
#101734
1*
#102203
0&
#105000
1!
08
#105986
1?
#117558
0@
0A
1B
0K
#120000
0!
18
#120402
1Q
#120405
0S
#120986
0?
#120991
0I
#120996
1E
#121986
0L
#122702
04
#122704
01
#124441
12
#124507
00
#125289
1D
#125292
1G
#125293
0E
#126455
0Q
#126462
0T
#126463
0U
#127047
0+
#127219
1'
#127254
1M
#127394
0,
#128229
1"
#129076
05
#131686
1(
#131850
1S
#131858
1O
#131860
1U
1R
#133272
0'
#133646
0-
#133736
16
#135000
1!
08
#135986
1?
#138492
1+
#138534
1)
#138627
1#
#147558
1@
1K
#150000
0!
18
#150399
0O
#150402
0R
#150405
1P
#150986
0?
#152702
14
#154507
10
#155289
0D
#155292
0G
#155293
1E
#157076
0)
#157168
0#
#157224
1%
#158229
0"
#161686
0(
#162170
1$
#165000
1!
08
#165986
1?
#177558
0@
1A
0K
#180000
0!
18
#180399
1O
#180402
1R
#180405
0P
#180986
0?
#180991
1I
#180996
0E
#181009
1G
#181011
0J
#181986
1L
#182702
04
#182704
11
#184507
00
#185292
0G
#185293
1J
1E
0H
#185295
0I
#186454
1P
0S
#186461
0O
#186463
0R
#187076
1)
#187168
1#
#187224
0%
#189076
15
#191734
0*
#193096
0+
#193137
0)
#193230
0#
#193273
1%
#195000
1!
08
#195986
1?
#207558
1@
1K
#210000
0!
18
#210401
1T
#210402
0U
1R
#210405
0P
1S
#210986
0?
#212702
14
#214507
10
#215292
1G
#215293
0J
0E
1H
#215295
1I
#217047
1+
#217076
1)
#217224
0%
#217585
1-
#218816
1/
#221686
1(
#221698
1,
#221734
1*
#222170
0$
#222222
1.
#225000
1!
08
#225986
1?
#237558
0@
0A
0B
1C
0K
#240000
0!
18
#240401
0T
#240402
1U
0R
#240405
1P
0S
#240986
0?
#241003
1D
#241986
0L
#242702
04
#242704
01
#243817
1F
#243943
1"
#244441
02
#244507
00
#245293
0H
#245347
0I
#245353
0D
#245357
0G
#245358
1J
#246089
13
#246454
0P
1S
#246461
1O
#246463
1R
#246487
0F
#247047
0+
#247076
0)
#247224
1%
#247254
0M
#247585
0-
#248293
0"
#248816
0/
#249076
05
#251434
1N
#251734
0*
#251750
0,
#251751
0(
#251850
0S
#251858
0O
#251860
0U
0R
#252287
0.
#253096
1+
#253137
1)
#253230
1#
#253273
0%
#253736
06
#255000
1!
08
#255986
1?
#256891
1U
#257914
17
#258492
0+
#258534
0)
#258627
0#
#267558
1@
1K
#270000
0!
18
#270405
1S
#270986
0?
#272702
14
#274507
10
#275293
1H
#277047
1+
#281734
1*
#285000
1!
08
#285986
1?
#297558
0@
1A
0K
#300000
0!
18
#300405
0S
#300986
0?
#300996
1E
#301003
1D
#301010
0H
#301986
1L
#302702
04
#302704
11
#303943
1"
#304507
00
#305289
0D
#305292
1G
#305293
0E
#306463
1R
#307047
0+
#307451
0*
#308229
0"
#309076
15
#311686
1(
#313137
1)
#315000
1!
08
#315986
1?
#327558
1@
1K
#330000
0!
18
#330399
1O
#330402
0R
#330405
1P
#330986
0?
#332702
14
#334507
10
#335289
1D
#335292
0G
#335293
1E
#337076
0)
#337168
1#
#337224
1%
#338229
1"
#341686
0(
#342170
1$
#345000
1!
08
#345986
1?
#357558
0@
0A
1B
0K
#360000
0!
18
#360399
0O
#360402
1R
#360405
0P
#360986
0?
#360991
1I
#360996
0E
#361986
0L
#362702
04
#362704
01
#364441
12
#364507
00
#365289
0D
#365293
0J
1E
#365295
0I
#366463
0R
#366487
1F
#367076
1)
#367168
0#
#367224
0%
#367254
1M
#368229
0"
#369076
05
#371850
1P
#371851
1Q
#371860
0U
#372222
1.
#373137
0)
#373736
16
#373747
1&
#375000
1!
08
#375986
1?
#378668
1'
#378669
1%
#380274
1/
#387558
1@
1K
#390000
0!
18
#390399
1O
#390401
1T
#390402
1U
0Q
#390405
0P
#390986
0?
#392702
14
#394507
10
#394943
0F
#395289
1D
#395293
1J
0E
#395295
1I
#397168
1#
#397219
0'
#397224
0%
#397585
1-
#398229
1"
#398816
0/
#401698
1,
#402170
0$
#402203
0&
#402222
0.
#405000
1!
08
#405986
1?
#417558
0@
1A
0K
#420000
0!
18
#420399
0O
#420401
0T
#420402
0U
1Q
#420405
1P
#420986
0?
#420991
0I
#420996
1E
#421003
0D
#421009
1G
#421986
1L
#422702
04
#422704
11
#423943
0"
#424507
00
#424943
1F
#425292
0G
#426463
1U
#427168
0#
#427219
1'
#427224
1%
#427394
0,
#427585
0-
#427873
1$
#429076
15
#432203
1&
#435000
1!
08
#435986
1?
#447558
1@
1K
#450000
0!
18
#450402
1R
#450986
0?
#452702
14
#454507
10
#455292
1G
#457076
1)
#461686
1(
#465000
1!
08
#465986
1?
#477558
0@
0A
0B
0C
0K
#480000
0!
18
#480373
0G
#480402
0R
#480986
0?
#480996
0E
#481010
1H
#481986
0L
#482702
04
#482704
01
#483817
0F
#484441
02
#484507
00
#485293
0H
#485358
0J
#486089
03
#486463
0U
#486767
0(
#487076
0)
#487254
0M
#487873
0$
#489076
05
#491077
0&
#491434
0N
#491850
0P
#491851
0Q
#491860
1U
#492287
1.
#493736
06
#495000
1!
08
#495986
1?
#496891
0U
#497914
07
#498668
0'
#498669
0%
#505305
1/
#507558
1@
1K
#510000
0!
18
#510399
1O
#510401
1T
#510402
1R
#510405
1S
#510986
0?
#512702
14
#514507
10
#515289
1D
#515292
1G
#515293
1H
#515295
1I
#517047
1+
#517076
1)
#517168
1#
#517585
1-
#518229
1"
#521686
1(
#521698
1,
#521734
1*
#525000
1!
08
#525986
1?
#537558
0@
1A
0K
#540000
0!
18
#540399
0O
#540401
0T
#540402
0R
#540405
0S
#540986
0?
#541003
0D
#541009
0G
#541011
1J
#541986
1L
#542702
04
#542704
11
#543188
1F
#543943
0"
#544507
00
#545293
0H
#546455
1Q
#546462
1T
#546463
1U
#547047
0+
#547076
0)
#547168
0#
#547403
0(
#547585
0-
#547940
0.
#549076
15
#550448
1&
#551734
0*
#553272
1'
#553646
1-
#554877
0/
#555000
1!
08
#555986
1?
#567558
1@
1K
#570000
0!
18
#570402
0Q
#570405
1S
#570986
0?
#572702
14
#574507
10
#574943
0F
#575293
1H
#577047
1+
#577219
0'
#581734
1*
#582203
0&
#585000
1!
08
#585986
1?
#597558
0@
0A
1B
0K
#600000
0!
18
#600402
1Q
#600405
0S
#600986
0?
#600991
0I
#600996
1E
#601986
0L
#602702
04
#602704
01
#604441
12
#604507
00
#605289
1D
#605292
1G
#605293
0E
#606455
0Q
#606462
0T
#606463
0U
#607047
0+
#607219
1'
#607254
1M
#607394
0,
#608229
1"
#609076
05
#611686
1(
#611850
1S
#611858
1O
#611860
1U
1R
#613272
0'
#613646
0-
#613736
16
#615000
1!
08
#615986
1?
#618492
1+
#618534
1)
#618627
1#
#627558
1@
1K
#630000
0!
18
#630399
0O
#630402
0R
#630405
1P
#630986
0?
#632702
14
#634507
10
#635289
0D
#635292
0G
#635293
1E
#637076
0)
#637168
0#
#637224
1%
#638229
0"
#641686
0(
#642170
1$
#645000
1!
08
#645986
1?
#657558
0@
1A
0K
#660000
0!
18
#660399
1O
#660402
1R
#660405
0P
#660986
0?
#660991
1I
#660996
0E
#661009
1G
#661011
0J
#661986
1L
#662702
04
#662704
11
#664507
00
#665292
0G
#665293
1J
1E
0H
#665295
0I
#666454
1P
0S
#666461
0O
#666463
0R
#667076
1)
#667168
1#
#667224
0%
#669076
15
#671734
0*
#673096
0+
#673137
0)
#673230
0#
#673273
1%
#675000
1!
08
#675986
1?
#687558
1@
1K
#690000
0!
18
#690401
1T
#690402
0U
1R
#690405
0P
1S
#690986
0?
#692702
14
#694507
10
#695292
1G
#695293
0J
0E
1H
#695295
1I
#697047
1+
#697076
1)
#697224
0%
#697585
1-
#698816
1/
#701686
1(
#701698
1,
#701734
1*
#702170
0$
#702222
1.
#705000
1!
08
#705986
1?
#717558
0@
0A
0B
1C
0K
#720000
0!
18
#720401
0T
#720402
1U
0R
#720405
1P
0S
#720986
0?
#721003
1D
#721986
0L
#722702
04
#722704
01
#723817
1F
#723943
1"
#724441
02
#724507
00
#725293
0H
#725347
0I
#725353
0D
#725357
0G
#725358
1J
#726089
13
#726454
0P
1S
#726461
1O
#726463
1R
#726487
0F
#727047
0+
#727076
0)
#727224
1%
#727254
0M
#727585
0-
#728293
0"
#728816
0/
#729076
05
#731434
1N
#731734
0*
#731750
0,
#731751
0(
#731850
0S
#731858
0O
#731860
0U
0R
#732287
0.
#733096
1+
#733137
1)
#733230
1#
#733273
0%
#733736
06
#735000
1!
08
#735986
1?
#736891
1U
#737914
17
#738492
0+
#738534
0)
#738627
0#
#747558
1@
1K
#750000
0!
18
#750405
1S
#750986
0?
#752702
14
#754507
10
#755293
1H
#757047
1+
#761734
1*
#765000
1!
08
#765986
1?
#777558
0@
1A
0K
#780000
0!
18
#780405
0S
#780986
0?
#780996
1E
#781003
1D
#781010
0H
#781986
1L
#782702
04
#782704
11
#783943
1"
#784507
00
#785289
0D
#785292
1G
#785293
0E
#786463
1R
#787047
0+
#787451
0*
#788229
0"
#789076
15
#791686
1(
#793137
1)
#795000
1!
08
#795986
1?
#807558
1@
1K
#810000
0!
18
#810399
1O
#810402
0R
#810405
1P
#810986
0?
#812702
14
#814507
10
#815289
1D
#815292
0G
#815293
1E
#817076
0)
#817168
1#
#817224
1%
#818229
1"
#821686
0(
#822170
1$
#825000
1!
08
#825986
1?
#837558
0@
0A
1B
0K
#840000
0!
18
#840399
0O
#840402
1R
#840405
0P
#840986
0?
#840991
1I
#840996
0E
#841986
0L
#842702
04
#842704
01
#844441
12
#844507
00
#845289
0D
#845293
0J
1E
#845295
0I
#846463
0R
#846487
1F
#847076
1)
#847168
0#
#847224
0%
#847254
1M
#848229
0"
#849076
05
#851850
1P
#851851
1Q
#851860
0U
#852222
1.
#853137
0)
#853736
16
#853747
1&
#855000
1!
08
#855986
1?
#858668
1'
#858669
1%
#860274
1/
#867558
1@
1K
#870000
0!
18
#870399
1O
#870401
1T
#870402
1U
0Q
#870405
0P
#870986
0?
#872702
14
#874507
10
#874943
0F
#875289
1D
#875293
1J
0E
#875295
1I
#877168
1#
#877219
0'
#877224
0%
#877585
1-
#878229
1"
#878816
0/
#881698
1,
#882170
0$
#882203
0&
#882222
0.
#885000
1!
08
#885986
1?
#897558
0@
1A
0K
#900000
0!
18
#900399
0O
#900401
0T
#900402
0U
1Q
#900405
1P
#900986
0?
#900991
0I
#900996
1E
#901003
0D
#901009
1G
#901986
1L
#902702
04
#902704
11
#903943
0"
#904507
00
#904943
1F
#905292
0G
#906463
1U
#907168
0#
#907219
1'
#907224
1%
#907394
0,
#907585
0-
#907873
1$
#909076
15
#912203
1&
#915000
1!
08
#915986
1?
#927558
1@
1K
#930000
0!
18
#930402
1R
#930986
0?
#932702
14
#934507
10
#935292
1G
#937076
1)
#941686
1(
#945000
1!
08
#945986
1?
#957558
0@
0A
0B
0C
0K
#960000
0!
18
#960373
0G
#960402
0R
#960986
0?
#960996
0E
#961010
1H
#961986
0L
#962702
04
#962704
01
#963817
0F
#964441
02
#964507
00
#965293
0H
#965358
0J
#966089
03
#966463
0U
#966767
0(
#967076
0)
#967254
0M
#967873
0$
#969076
05
#971077
0&
#971434
0N
#971850
0P
#971851
0Q
#971860
1U
#972287
1.
#973736
06
#975000
1!
08
#975986
1?
#976891
0U
#977914
07
#978668
0'
#978669
0%
#985305
1/
#987558
1@
1K
#990000
0!
18
#990399
1O
#990401
1T
#990402
1R
#990405
1S
#990986
0?
#992702
14
#994507
10
#995289
1D
#995292
1G
#995293
1H
#995295
1I
#997047
1+
#997076
1)
#997168
1#
#997585
1-
#998229
1"
