lab9/simulation/qsim/lab9.msim.vcd
$comment
	File created using the following command:
		vcd file lab9.msim.vcd -direction
$end
$date
	Sun Apr 28 01:17:44 2019
$end
$version
	ModelSim Version 10.5b
$end
$timescale
	1ps
$end

$scope module lab9_vlg_vec_tst $end
$var reg 1 ! CLK $end
$var wire 1 " a1 $end
$var wire 1 # a2 $end
$var wire 1 $ b1 $end
$var wire 1 % b2 $end
$var wire 1 & c1 $end
$var wire 1 ' c2 $end
$var wire 1 ( d1 $end
$var wire 1 ) d2 $end
$var wire 1 * e1 $end
$var wire 1 + e2 $end
$var wire 1 , f1 $end
$var wire 1 - f2 $end
$var wire 1 . g1 $end
$var wire 1 / g2 $end
$var wire 1 0 Q11 $end
$var wire 1 1 Q12 $end
$var wire 1 2 Q13 $end
$var wire 1 3 Q14 $end
$var wire 1 4 Q21 $end
$var wire 1 5 Q22 $end
$var wire 1 6 Q23 $end
$var wire 1 7 Q24 $end

$scope module i1 $end
$var wire 1 8 gnd $end
$var wire 1 9 vcc $end
$var wire 1 : unknown $end
$var tri1 1 ; devclrn $end
$var tri1 1 < devpor $end
$var tri1 1 = devoe $end
$var wire 1 > CLK~combout $end
$var wire 1 ? inst~regout $end
$var wire 1 @ inst1~regout $end
$var wire 1 A inst2~regout $end
$var wire 1 B inst3~regout $end
$var wire 1 C sge0|WideOr0~0_combout $end
$var wire 1 D sge0|WideOr1~0_combout $end
$var wire 1 E sge0|WideOr2~0_combout $end
$var wire 1 F sge0|WideOr3~0_combout $end
$var wire 1 G sge0|WideOr4~0_combout $end
$var wire 1 H sge0|WideOr5~0_combout $end
$var wire 1 I sge0|WideOr6~0_combout $end
$var wire 1 J inst24~regout $end
$var wire 1 K inst23~regout $end
$var wire 1 L inst22~regout $end
$var wire 1 M inst21~regout $end
$var wire 1 N seg2|WideOr0~0_combout $end
$var wire 1 O seg2|WideOr1~0_combout $end
$var wire 1 P seg2|WideOr2~0_combout $end
$var wire 1 Q seg2|WideOr3~0_combout $end
$var wire 1 R seg2|WideOr4~0_combout $end
$var wire 1 S seg2|WideOr5~0_combout $end
$var wire 1 T seg2|WideOr6~0_combout $end
$upscope $end
$upscope $end
$enddefinitions $end
#0
$dumpvars
0!
x"
x#
x$
x%
x&
x'
x(
x)
x*
x+
x,
x-
x.
x/
x0
x1
x2
x3
x4
x5
x6
x7
08
19
x:
1;
1<
1=
x>
0?
0@
0A
0B
xC
xD
xE
xF
xG
xH
xI
0J
0K
0L
0M
xN
xO
xP
xQ
xR
xS
xT
$end
#986
0>
#4085
0H
#4260
0S
#4572
0O
#4574
0P
#5179
01
#6233
0E
#6389
0R
#6393
0Q
#6394
0N
#6395
0T
#6439
07
#6879
0I
#6896
00
#6934
03
#6995
05
#7030
06
#7161
0-
#7501
02
#7943
0F
#7945
0C
0G
#7949
0D
#8184
04
#9295
0+
#10493
0,
#10885
0"
#10903
0%
#10947
0'
#12614
1/
#12617
0)
#12890
0$
#13270
1.
#13493
0&
#14856
0*
#14876
0#
#14882
0(
#20000
1!
#20986
1>
#32558
1?
1J
#36640
1C
#36642
1F
#36643
1H
#36644
1G
#36932
1K
#37051
1Q
#37052
1N
#37062
1S
#37063
1R
#39454
10
#39580
1"
#39963
1-
#39969
1+
#40000
0!
#40742
14
#40986
0>
#41203
0Q
#41204
1T
0N
#42197
1L
#43051
1,
#43555
1*
#43581
1(
#43927
15
#46377
1M
#47423
0/
#48590
1Q
#48592
0T
#49227
16
#50947
0S
#50948
0R
#50949
1O
#50951
1P
#50960
1T
#52816
17
#53848
0-
#53854
0+
#54814
1)
#57280
1%
#57324
1'
#60000
1!
#60986
1>
#72558
0?
1@
0J
#76644
0G
#76809
1I
#76818
0C
#76820
0F
#77051
0Q
#77737
11
#78791
1E
#79454
00
#79758
0"
#80000
0!
#80742
04
#80986
0>
#83200
0.
#83275
0)
#83555
0*
#83759
0(
#86051
1&
#100000
1!
#100986
1>
#112558
1?
1J
#116644
1G
#116932
0K
#117051
1Q
#119454
10
#119703
0E
#120000
0!
#120742
14
#120986
0>
#121192
1S
#121194
0O
#121196
0P
#121203
0Q
#121204
1N
#123555
1*
#123927
05
#124093
1-
#126963
0&
#127525
0%
#127569
0'
#129686
1#
#140000
1!
#140986
1>
#152558
0?
0@
1A
0J
#156643
0H
#156644
0G
#156809
0I
#157052
0T
0N
#157057
1P
#157058
1O
#157062
0S
#157737
01
#159454
00
#159963
0-
#160000
0!
#160059
12
#160501
1F
#160503
1C
1G
#160508
1I
#160742
04
#160986
0>
#163051
0,
#163271
1/
#163389
1%
#163430
1'
#163443
1"
#165534
0#
#167440
1(
#180000
1!
#180986
1>
#192558
1?
1J
#196632
1D
#196640
0C
#196642
0F
#196932
1K
#197052
1T
1N
#197057
0P
#197058
0O
#197062
1S
#199454
10
#199580
0"
#199963
1-
#200000
0!
#200742
14
#200986
0>
#201192
0S
#201194
1O
#201196
1P
#201203
1Q
#201204
0N
#201573
1$
#202197
0L
#203271
0/
#203581
0(
#203927
15
#204093
0-
#207427
1)
#208582
0P
#208590
0Q
#208591
1N
#209227
06
#214814
0)
#214955
0'
#217073
1#
#220000
1!
#220986
1>
#232558
0?
1@
0J
#236644
0G
#237051
1Q
#237052
0N
#237058
0O
#237737
11
#239454
00
#240000
0!
#240742
04
#240986
0>
#243275
1)
#243389
0%
#243555
0*
#245534
0#
#260000
1!
#260986
1>
#272558
1?
1J
#276626
0I
#276632
0D
#276642
1F
#276643
1H
#276644
1G
#276932
0K
#277051
0Q
#277052
1N
#277058
1O
#279454
10
#280000
0!
#280742
14
#280986
0>
#281190
1R
#281194
0O
#281204
0N
#281573
0$
#283017
1.
#283051
1,
#283275
0)
#283555
1*
#283581
1(
#283927
05
#284096
1+
#300000
1!
#300986
1>
#312558
0?
0@
0A
1B
0J
#316640
1C
#316809
1I
#316821
0H
#317063
0R
#317737
01
#319454
00
#319492
13
#319580
1"
#319969
0+
#320000
0!
#320059
02
#320501
0F
#320503
0C
0G
#320742
04
#320986
0>
#323200
0.
#323229
0,
#323443
0"
#327414
0*
#327440
0(
#340000
1!
#340986
1>
#352558
1?
1J
#356644
1G
#356932
1K
#357063
1R
#359454
10
#359969
1+
#360000
0!
#360742
14
#360986
0>
#361190
0R
#361194
1O
#361204
1N
#362197
1L
#363555
1*
#363927
15
#364096
0+
#366377
0M
#367525
1%
#368582
1P
#368590
1Q
#368591
0N
#369227
16
#369686
1#
#370947
1S
#370948
1R
#370949
0O
#370951
0P
#370960
0T
#372816
07
#373848
1-
#373854
1+
#374814
1)
#377073
0#
#377179
1/
#377280
0%
#380000
1!
#380986
1>
#392558
0?
1@
0J
#396642
1F
#396822
0G
#397051
0Q
#397052
1T
#397058
1O
#397062
0S
#397063
0R
#397737
11
#399454
00
#399963
0-
#399969
0+
#400000
0!
#400742
04
#400986
0>
#403271
0/
#403275
0)
#403389
1%
#403581
1(
#403733
0*
#420000
1!
#420986
1>
#432558
1?
1J
#436632
1D
#436640
1C
#436642
0F
#436932
0K
#437051
1Q
#437052
0T
#437058
0O
#437062
1S
#437063
1R
#439454
10
#439580
1"
#439963
1-
#439969
1+
#440000
0!
#440742
14
#440986
0>
#441192
0S
#441194
1O
#441203
0Q
#441204
1T
#441573
1$
#443581
0(
#443927
05
#444093
0-
#460000
1!
#460986
1>
#472558
0?
0@
1A
0J
#476811
0D
#476818
0C
#477051
1Q
#477052
1N
#477058
0O
#477737
01
#479454
00
#479758
0"
#480000
0!
#480059
12
#480481
1E
#480507
1D
#480508
0I
#480742
04
#480986
0>
#481752
0$
#483275
1)
#483389
0%
#485448
1$
#485534
1#
#486899
1.
#487741
1&
#500000
1!
#500986
1>
#512558
1?
1J
#516626
1I
#516632
0D
#516640
1C
#516643
1H
#516932
1K
#517051
0Q
#517052
0N
#517058
1O
#519454
10
#519580
1"
#519703
0E
#520000
0!
#520742
14
#520986
0>
#521192
1S
#521194
0O
#521203
1Q
#521204
0T
#521573
0$
#522197
0L
#523017
0.
#523051
1,
#523927
15
#524093
1-
#525534
0#
#526963
0&
#527423
1/
#528590
0Q
#528592
1T
#529227
06
#534811
0/
#534814
0)
#540000
1!
#540986
1>
#552558
0?
1@
0J
#556811
1D
#556818
0C
#556821
0H
#557057
1P
#557063
0R
#557737
11
#559454
00
#559703
1E
#559758
0"
#559969
0+
#560000
0!
#560742
04
#560986
0>
#561752
1$
#563229
0,
#563430
1'
#566963
1&
#580000
1!
#580986
1>
#592558
1?
1J
#596642
1F
#596932
0K
#597057
0P
#597063
1R
#599454
10
#599969
1+
#600000
0!
#600742
14
#600986
0>
#601203
1Q
#601204
0T
1N
#603430
0'
#603581
1(
#603927
05
#607423
1/
#607427
1)
#609686
1#
#620000
1!
#620986
1>
#632558
0?
0@
0A
0B
0J
#636626
0I
#636820
0F
#637051
0Q
#637052
0N
#637062
0S
#637063
0R
#637737
01
#639454
00
#639492
03
#639963
0-
#639969
0+
#640000
0!
#640059
02
#640481
0E
#640507
0D
#640742
04
#640986
0>
#643017
1.
#643275
0)
#643759
0(
#645448
0$
#645534
0#
#647741
0&
#660000
1!
#660986
1>
#672558
1?
1J
#676640
1C
#676642
1F
#676643
1H
#676644
1G
#676932
1K
#677051
1Q
#677052
1N
#677062
1S
#677063
1R
#679454
10
#679580
1"
#679963
1-
#679969
1+
#680000
0!
#680742
14
#680986
0>
#681203
0Q
#681204
1T
0N
#682197
1L
#683051
1,
#683555
1*
#683581
1(
#683927
15
#686377
1M
#687423
0/
#688590
1Q
#688592
0T
#689227
16
#690947
0S
#690948
0R
#690949
1O
#690951
1P
#690960
1T
#692816
17
#693848
0-
#693854
0+
#694814
1)
#697280
1%
#697324
1'
#700000
1!
#700986
1>
#712558
0?
1@
0J
#716644
0G
#716809
1I
#716818
0C
#716820
0F
#717051
0Q
#717737
11
#718791
1E
#719454
00
#719758
0"
#720000
0!
#720742
04
#720986
0>
#723200
0.
#723275
0)
#723555
0*
#723759
0(
#726051
1&
#740000
1!
#740986
1>
#752558
1?
1J
#756644
1G
#756932
0K
#757051
1Q
#759454
10
#759703
0E
#760000
0!
#760742
14
#760986
0>
#761192
1S
#761194
0O
#761196
0P
#761203
0Q
#761204
1N
#763555
1*
#763927
05
#764093
1-
#766963
0&
#767525
0%
#767569
0'
#769686
1#
#780000
1!
#780986
1>
#792558
0?
0@
1A
0J
#796643
0H
#796644
0G
#796809
0I
#797052
0T
0N
#797057
1P
#797058
1O
#797062
0S
#797737
01
#799454
00
#799963
0-
#800000
0!
#800059
12
#800501
1F
#800503
1C
1G
#800508
1I
#800742
04
#800986
0>
#803051
0,
#803271
1/
#803389
1%
#803430
1'
#803443
1"
#805534
0#
#807440
1(
#820000
1!
#820986
1>
#832558
1?
1J
#836632
1D
#836640
0C
#836642
0F
#836932
1K
#837052
1T
1N
#837057
0P
#837058
0O
#837062
1S
#839454
10
#839580
0"
#839963
1-
#840000
0!
#840742
14
#840986
0>
#841192
0S
#841194
1O
#841196
1P
#841203
1Q
#841204
0N
#841573
1$
#842197
0L
#843271
0/
#843581
0(
#843927
15
#844093
0-
#847427
1)
#848582
0P
#848590
0Q
#848591
1N
#849227
06
#854814
0)
#854955
0'
#857073
1#
#860000
1!
#860986
1>
#872558
0?
1@
0J
#876644
0G
#877051
1Q
#877052
0N
#877058
0O
#877737
11
#879454
00
#880000
0!
#880742
04
#880986
0>
#883275
1)
#883389
0%
#883555
0*
#885534
0#
#900000
1!
#900986
1>
#912558
1?
1J
#916626
0I
#916632
0D
#916642
1F
#916643
1H
#916644
1G
#916932
0K
#917051
0Q
#917052
1N
#917058
1O
#919454
10
#920000
0!
#920742
14
#920986
0>
#921190
1R
#921194
0O
#921204
0N
#921573
0$
#923017
1.
#923051
1,
#923275
0)
#923555
1*
#923581
1(
#923927
05
#924096
1+
#940000
1!
#940986
1>
#952558
0?
0@
0A
1B
0J
#956640
1C
#956809
1I
#956821
0H
#957063
0R
#957737
01
#959454
00
#959492
13
#959580
1"
#959969
0+
#960000
0!
#960059
02
#960501
0F
#960503
0C
0G
#960742
04
#960986
0>
#963200
0.
#963229
0,
#963443
0"
#967414
0*
#967440
0(
#980000
1!
#980986
1>
#992558
1?
1J
#996644
1G
#996932
1K
#997063
1R
#999454
10
#999969
1+
