lab6/lab6/simulation/qsim/lab6.msim.vcd
$comment
	File created using the following command:
		vcd file lab6.msim.vcd -direction
$end
$date
	Fri Mar 29 18:03:22 2019
$end
$version
	ModelSim Version 10.1d
$end
$timescale
	1ps
$end
$scope module lab6_3_vlg_vec_tst $end
$var reg 1 ! A $end
$var reg 1 " B $end
$var reg 1 # Ci_1 $end
$var wire 1 $ Ci $end
$var wire 1 % Si $end
$var wire 1 & sampler $end
$scope module i1 $end
$var wire 1 ' gnd $end
$var wire 1 ( vcc $end
$var wire 1 ) unknown $end
$var tri1 1 * devclrn $end
$var tri1 1 + devpor $end
$var tri1 1 , devoe $end
$var wire 1 - B~combout $end
$var wire 1 . Ci_1~combout $end
$var wire 1 / A~combout $end
$var wire 1 0 inst7~0_combout $end
$var wire 1 1 inst6~0_combout $end
$upscope $end
$upscope $end
$enddefinitions $end
#0
$dumpvars
0!
0"
0#
0$
0%
x&
0'
1(
x)
1*
1+
1,
0-
0.
0/
00
11
$end
#40000
1!
1/
0&
10
1%
#80000
1"
0!
1-
0/
1&
#120000
1!
1/
0&
01
00
0%
1$
#160000
1#
0"
0!
1.
0-
0/
1&
11
10
1%
0$
#200000
1!
1/
0&
01
00
0%
1$
#240000
1"
0!
1-
0/
1&
#280000
1!
1/
0&
10
1%
#320000
0#
0"
0!
0.
0-
0/
1&
11
00
0%
0$
