lab4/simulation/qsim/lab4.msim.vcd
$comment
	File created using the following command:
		vcd file lab4.msim.vcd -direction
$end
$date
	Fri Mar 15 17:34:42 2019
$end
$version
	ModelSim Version 10.1d
$end
$timescale
	1ps
$end
$scope module lab4_vlg_vec_tst $end
$var reg 4 ! data [3:0] $end
$var wire 1 " a $end
$var wire 1 # b $end
$var wire 1 $ c $end
$var wire 1 % d $end
$var wire 1 & e $end
$var wire 1 ' f $end
$var wire 1 ( g $end
$var wire 1 ) sampler $end
$scope module i1 $end
$var wire 1 * gnd $end
$var wire 1 + vcc $end
$var wire 1 , unknown $end
$var tri1 1 - devclrn $end
$var tri1 1 . devpor $end
$var tri1 1 / devoe $end
$var wire 1 0 WideOr0~0_combout $end
$var wire 1 1 WideOr1~0_combout $end
$var wire 1 2 WideOr2~0_combout $end
$var wire 1 3 WideOr3~0_combout $end
$var wire 1 4 WideOr4~0_combout $end
$var wire 1 5 WideOr5~0_combout $end
$var wire 1 6 WideOr6~0_combout $end
$var wire 1 7 data~combout [3] $end
$var wire 1 8 data~combout [2] $end
$var wire 1 9 data~combout [1] $end
$var wire 1 : data~combout [0] $end
$upscope $end
$upscope $end
$enddefinitions $end
#0
$dumpvars
b0 !
0"
0#
0$
0%
0&
0'
1(
x)
0*
1+
x,
1-
1.
1/
00
01
02
03
04
05
06
0:
09
08
07
$end
#20000
b1 !
1:
0)
15
14
13
10
1'
1&
1%
1"
#40000
b11 !
b10 !
0:
19
1)
16
04
03
12
00
0&
0%
1$
0"
0(
#60000
b11 !
1:
0)
14
02
1&
0$
#80000
b111 !
b101 !
b100 !
0:
09
18
1)
05
13
10
0'
1%
1"
#100000
b101 !
1:
0)
03
11
00
0%
1#
0"
#120000
b111 !
b110 !
0:
19
1)
04
0&
#140000
b111 !
1:
0)
06
15
14
13
01
1'
1&
1%
0#
1(
#160000
b1111 !
b1011 !
b1001 !
b1000 !
0:
09
08
17
1)
16
05
04
03
0'
0&
0%
0(
#180000
b1001 !
1:
0)
14
1&
#200000
b1011 !
b1010 !
0:
19
1)
04
13
0&
1%
#220000
b1011 !
1:
0)
03
11
10
0%
1#
1"
#240000
b1111 !
b1101 !
b1100 !
0:
09
18
1)
06
12
00
1$
0"
1(
#260000
b1101 !
1:
0)
16
15
02
01
10
1'
0$
0#
1"
0(
#280000
b1111 !
b1110 !
0:
19
1)
05
12
11
00
0'
1$
1#
0"
#300000
b1111 !
1:
0)
13
1%
#320000
b111 !
b11 !
b1 !
b0 !
0:
09
08
07
1)
06
03
02
01
0%
0$
0#
1(
